…
- the dataframe is pivoted longer
- the missing values are removed (these are “structural” missing values,
  not actual missing data)
- the group numbers are replaced by names that indicate which group is
  which:

``` r
library(thing2)
births <- read_raw()
births
```

    # A tibble: 22 × 2
       cortisol type   
          <dbl> <chr>  
     1      262 c_pre  
     2      465 c_emerg
     3      343 spont  
     4      307 c_pre  
     5      501 c_emerg
     6      772 spont  
     7      211 c_pre  
     8      455 c_emerg
     9      207 spont  
    10      323 c_pre  
    # ℹ 12 more rows
…
